{
  "endpoints": {
    "/audit": {
      "description": "ดึงข้อมูล audit logs ทั้งหมด",
      "responseKey": "auditLogs"
    },
    "/audit/stats": {
      "description": "ดึงข้อมูลสถิติของ audit logs",
      "responseKey": "auditStats"
    },
    "/audit/user-activity": {
      "description": "ดึงข้อมูลกิจกรรมของผู้ใช้",
      "responseKey": "userActivity"
    },
    "/audit/entity-history": {
      "description": "ดึงข้อมูลประวัติของ entity",
      "responseKey": "entityHistory"
    },
    "/audit/search": {
      "description": "ค้นหา audit logs ตามเงื่อนไข",
      "responseKey": "searchAuditLogs"
    },
    "/audit/reports/suspicious": {
      "description": "รายงานกิจกรรมที่น่าสงสัย",
      "responseKey": "suspiciousActivity"
    },
    "/audit/export": {
      "description": "ส่งออกรายงาน audit",
      "responseKey": "exportAuditReport"
    }
  },
  "responses": {
    "auditLogs": {
      "success": true,
      "data": {
        "logs": [],
        "total": 100,
        "page": 1,
        "limit": 20,
        "totalPages": 5
      }
    },
    "auditStats": {
      "success": true,
      "data": {
        "totalLogs": 1000,
        "activeUsers": 50,
        "suspiciousActivities": 10
      }
    },
    "userActivity": {
      "success": true,
      "data": [
        {
          "userId": "123",
          "activity": "Login",
          "timestamp": "2025-07-14T10:00:00Z"
        },
        {
          "userId": "124",
          "activity": "Logout",
          "timestamp": "2025-07-14T10:05:00Z"
        }
      ]
    },
    "entityHistory": {
      "success": true,
      "data": [
        {
          "entityId": "123",
          "changes": [
            {
              "field": "status",
              "oldValue": "active",
              "newValue": "inactive",
              "timestamp": "2025-07-14T10:00:00Z"
            }
          ]
        }
      ]
    },
    "searchAuditLogs": {
      "success": true,
      "data": [
        {
          "id": "123",
          "activity": "Login",
          "timestamp": "2025-07-14T10:00:00Z",
          "details": {
            "ipAddress": "192.168.1.1",
            "userAgent": "Mozilla/5.0"
          }
        }
      ]
    },
    "suspiciousActivity": {
      "success": true,
      "data": [
        {
          "id": "123",
          "activity": "Suspicious login attempt",
          "timestamp": "2025-07-14T10:00:00Z",
          "details": {
            "ipAddress": "192.168.1.1",
            "userAgent": "Mozilla/5.0"
          }
        },
        {
          "id": "124",
          "activity": "Multiple failed login attempts",
          "timestamp": "2025-07-14T10:05:00Z",
          "details": {
            "ipAddress": "192.168.1.2",
            "userAgent": "Chrome/91.0"
          }
        }
      ]
    },
    "exportAuditReport": {
      "success": true,
      "data": {
        "fileUrl": "https://example.com/audit-report-2025-07-14.csv",
        "fileName": "audit-report-2025-07-14.csv"
      }
    }
  }
}
